%YAML 1.1
%TAG !u! tag:unity3d.com,2011:
--- !u!114 &11400000
MonoBehaviour:
  m_ObjectHideFlags: 0
  m_PrefabParentObject: {fileID: 0}
  m_PrefabInternal: {fileID: 0}
  m_GameObject: {fileID: 0}
  m_Enabled: 1
  m_EditorHideFlags: 0
  m_Script: {fileID: 11500000, guid: f3a65194e84ae1f4b819f1b3cda570c8, type: 3}
  m_Name: DefaultEnemyAttack
  m_EditorClassIdentifier: 
  actions:
  - {fileID: 11400000, guid: e0e578e16ef73094999bdb9e0794f809, type: 2}
  transitions:
  - decision: {fileID: 11400000, guid: 08917b140fef8d64298515fb506f0b14, type: 2}
    nextState: {fileID: 11400000, guid: 6e314747ca3e1b9438443567aa5d3e3d, type: 2}
  gizmoColor: {r: 0.78431374, g: 0, b: 0, a: 1}
