%YAML 1.1
%TAG !u! tag:unity3d.com,2011:
--- !u!114 &11400000
MonoBehaviour:
  m_ObjectHideFlags: 0
  m_PrefabParentObject: {fileID: 0}
  m_PrefabInternal: {fileID: 0}
  m_GameObject: {fileID: 0}
  m_Enabled: 1
  m_EditorHideFlags: 0
  m_Script: {fileID: 11500000, guid: f3a65194e84ae1f4b819f1b3cda570c8, type: 3}
  m_Name: DefaultEnemyChase
  m_EditorClassIdentifier: 
  actions:
  - {fileID: 11400000, guid: 0a4207ef7bf7dd94bb178e1bb7aae621, type: 2}
  transitions:
  - decision: {fileID: 11400000, guid: e14187a627aeaa64cad381874ff764f6, type: 2}
    nextState: {fileID: 11400000, guid: b8404ceaf67e6c342a05eafaaeec233d, type: 2}
  - decision: {fileID: 11400000, guid: e6bf3934088fa8440834bd93f3eae8bd, type: 2}
    nextState: {fileID: 11400000, guid: ea75c8f70ba354343b4ec87be9042004, type: 2}
  gizmoColor: {r: 0.78431374, g: 0.74509805, b: 0.15686275, a: 1}
